Checking username and private key... *OK*<br>
Checking PHP version... *OK*<br>
Checking DOMDocument support... *OK*<br>
Checking transport method... <b>libcurl</b> is installed. Using <b>cURL</b> to handle requests<br>
<b>SQLite</b> is installed. Stats enabled. Please define a stats username and password in config.php<br>
Checking write permisions... <b>tmp</b> is writable. Using <b>tmp</b> to store cookie files and logs<br>
Checking for new versions of OpenInviter... Your OpenInviter software is up-to-date<br>
Checking AOL... *OK*<br>
Checking GMail... *OK*<br>
Checking LinkedIn... *OK*<br>
Checking MSN... *OK*<br>
Checking OperaMail... *OK*<br>
Checking Yahoo!... *OK*<br>
Checking YouTube... *OK*<br>
Checking Badoo... *OK*<br>
Checking Bebo... *OK*<br>
Checking Facebook... *NOT OK* - This plugin might not work correctly on your system<br>
Checking Flickr... *OK*<br>
Checking Flingr... *NOT OK* - This plugin might not work correctly on your system<br>
Checking Flixster... *OK*<br>
Checking Hi5... *NOT OK* - This plugin might not work correctly on your system<br>
Checking MySpace... *OK*<br>
Checking NetLog... *NOT OK* - This plugin might not work correctly on your system<br>
Checking Orkut... *OK*<br>
Checking Twitter... *OK*<br>
<br><b>WARNING:</b> Delete postinstall.php before running OpenInviter. Also please note that you cannot run postinstall.php again for 2 minutes.